OpL/output.vcd
$date
   Thu Dec  2 21:23:39 2021
$end
$version
  P.20131013
$end
$timescale
  1ps
$end
$scope module testopl $end
$var wire 1 8! clk $end
$var wire 1 7! reset $end
$var wire 1 S en $end
$var wire 1 Q! miso $end
$var wire 1 [ v1 [7] $end
$var wire 1 Z v1 [6] $end
$var wire 1 Y v1 [5] $end
$var wire 1 X v1 [4] $end
$var wire 1 W v1 [3] $end
$var wire 1 V v1 [2] $end
$var wire 1 U v1 [1] $end
$var wire 1 T v1 [0] $end
$var wire 1 c v2 [7] $end
$var wire 1 b v2 [6] $end
$var wire 1 a v2 [5] $end
$var wire 1 ` v2 [4] $end
$var wire 1 _ v2 [3] $end
$var wire 1 ^ v2 [2] $end
$var wire 1 ] v2 [1] $end
$var wire 1 \ v2 [0] $end
$var wire 1 "! busy $end
$var wire 1 O! sclk $end
$var wire 1 P! mosi $end
$var wire 1 o val_nand [7] $end
$var wire 1 n val_nand [6] $end
$var wire 1 m val_nand [5] $end
$var wire 1 l val_nand [4] $end
$var wire 1 k val_nand [3] $end
$var wire 1 j val_nand [2] $end
$var wire 1 i val_nand [1] $end
$var wire 1 h val_nand [0] $end
$var wire 1 w val_nor [7] $end
$var wire 1 v val_nor [6] $end
$var wire 1 u val_nor [5] $end
$var wire 1 t val_nor [4] $end
$var wire 1 s val_nor [3] $end
$var wire 1 r val_nor [2] $end
$var wire 1 q val_nor [1] $end
$var wire 1 p val_nor [0] $end
$var wire 1 !! val_xor [7] $end
$var wire 1 ~ val_xor [6] $end
$var wire 1 } val_xor [5] $end
$var wire 1 | val_xor [4] $end
$var wire 1 { val_xor [3] $end
$var wire 1 z val_xor [2] $end
$var wire 1 y val_xor [1] $end
$var wire 1 x val_xor [0] $end
$var wire 1 R! ss $end
$scope module m $end
$var wire 1 7! rst $end
$var wire 1 8! clk $end
$var wire 1 S en $end
$var wire 1 [ v1 [7] $end
$var wire 1 Z v1 [6] $end
$var wire 1 Y v1 [5] $end
$var wire 1 X v1 [4] $end
$var wire 1 W v1 [3] $end
$var wire 1 V v1 [2] $end
$var wire 1 U v1 [1] $end
$var wire 1 T v1 [0] $end
$var wire 1 c v2 [7] $end
$var wire 1 b v2 [6] $end
$var wire 1 a v2 [5] $end
$var wire 1 ` v2 [4] $end
$var wire 1 _ v2 [3] $end
$var wire 1 ^ v2 [2] $end
$var wire 1 ] v2 [1] $end
$var wire 1 \ v2 [0] $end
$var wire 1 Q! miso $end
$var wire 1 R! ss $end
$var wire 1 O! sclk $end
$var wire 1 P! mosi $end
$var wire 1 o val_nand [7] $end
$var wire 1 n val_nand [6] $end
$var wire 1 m val_nand [5] $end
$var wire 1 l val_nand [4] $end
$var wire 1 k val_nand [3] $end
$var wire 1 j val_nand [2] $end
$var wire 1 i val_nand [1] $end
$var wire 1 h val_nand [0] $end
$var wire 1 w val_nor [7] $end
$var wire 1 v val_nor [6] $end
$var wire 1 u val_nor [5] $end
$var wire 1 t val_nor [4] $end
$var wire 1 s val_nor [3] $end
$var wire 1 r val_nor [2] $end
$var wire 1 q val_nor [1] $end
$var wire 1 p val_nor [0] $end
$var wire 1 !! val_xor [7] $end
$var wire 1 ~ val_xor [6] $end
$var wire 1 } val_xor [5] $end
$var wire 1 | val_xor [4] $end
$var wire 1 { val_xor [3] $end
$var wire 1 z val_xor [2] $end
$var wire 1 y val_xor [1] $end
$var wire 1 x val_xor [0] $end
$var wire 1 "! busy $end
$var wire 1 9! enbis $end
$var wire 1 M! busybis $end
$var wire 1 A! dinbis [7] $end
$var wire 1 @! dinbis [6] $end
$var wire 1 ?! dinbis [5] $end
$var wire 1 >! dinbis [4] $end
$var wire 1 =! dinbis [3] $end
$var wire 1 <! dinbis [2] $end
$var wire 1 ;! dinbis [1] $end
$var wire 1 :! dinbis [0] $end
$var wire 1 L! doutbis [7] $end
$var wire 1 K! doutbis [6] $end
$var wire 1 J! doutbis [5] $end
$var wire 1 I! doutbis [4] $end
$var wire 1 H! doutbis [3] $end
$var wire 1 G! doutbis [2] $end
$var wire 1 F! doutbis [1] $end
$var wire 1 E! doutbis [0] $end
$var wire 1 6! busyavant $end
$scope module Inst_er_1octet $end
$var wire 1 7! rst $end
$var wire 1 8! clk $end
$var wire 1 9! en $end
$var wire 1 A! din [7] $end
$var wire 1 @! din [6] $end
$var wire 1 ?! din [5] $end
$var wire 1 >! din [4] $end
$var wire 1 =! din [3] $end
$var wire 1 <! din [2] $end
$var wire 1 ;! din [1] $end
$var wire 1 :! din [0] $end
$var wire 1 Q! miso $end
$var wire 1 O! sclk $end
$var wire 1 P! mosi $end
$var wire 1 L! dout [7] $end
$var wire 1 K! dout [6] $end
$var wire 1 J! dout [5] $end
$var wire 1 I! dout [4] $end
$var wire 1 H! dout [3] $end
$var wire 1 G! dout [2] $end
$var wire 1 F! dout [1] $end
$var wire 1 E! dout [0] $end
$var wire 1 M! busy $end
$upscope $end
$upscope $end
$scope module s $end
$var wire 1 O! sclk $end
$var wire 1 P! mosi $end
$var wire 1 Q! miso $end
$var wire 1 R! ss $end
$var wire 1 Z! v1 [7] $end
$var wire 1 Y! v1 [6] $end
$var wire 1 X! v1 [5] $end
$var wire 1 W! v1 [4] $end
$var wire 1 V! v1 [3] $end
$var wire 1 U! v1 [2] $end
$var wire 1 T! v1 [1] $end
$var wire 1 S! v1 [0] $end
$var wire 1 b! v2 [7] $end
$var wire 1 a! v2 [6] $end
$var wire 1 `! v2 [5] $end
$var wire 1 _! v2 [4] $end
$var wire 1 ^! v2 [3] $end
$var wire 1 ]! v2 [2] $end
$var wire 1 \! v2 [1] $end
$var wire 1 [! v2 [0] $end
$var wire 1 j! val_nand [7] $end
$var wire 1 i! val_nand [6] $end
$var wire 1 h! val_nand [5] $end
$var wire 1 g! val_nand [4] $end
$var wire 1 f! val_nand [3] $end
$var wire 1 e! val_nand [2] $end
$var wire 1 d! val_nand [1] $end
$var wire 1 c! val_nand [0] $end
$var wire 1 r! val_nor [7] $end
$var wire 1 q! val_nor [6] $end
$var wire 1 p! val_nor [5] $end
$var wire 1 o! val_nor [4] $end
$var wire 1 n! val_nor [3] $end
$var wire 1 m! val_nor [2] $end
$var wire 1 l! val_nor [1] $end
$var wire 1 k! val_nor [0] $end
$var wire 1 z! val_xor [7] $end
$var wire 1 y! val_xor [6] $end
$var wire 1 x! val_xor [5] $end
$var wire 1 w! val_xor [4] $end
$var wire 1 v! val_xor [3] $end
$var wire 1 u! val_xor [2] $end
$var wire 1 t! val_xor [1] $end
$var wire 1 s! val_xor [0] $end
$upscope $end
$upscope $end
$enddefinitions $end
#0
$dumpvars
08!
07!
xS
xQ!
x[
xZ
xY
xX
xW
xV
xU
xT
xc
xb
xa
x`
x_
x^
x]
x\
0"!
1O!
0P!
0o
0n
0m
0l
0k
0j
0i
0h
0w
0v
0u
0t
0s
0r
0q
0p
0!!
0~
0}
0|
0{
0z
0y
0x
1R!
x9!
0M!
xA!
x@!
x?!
x>!
x=!
x<!
x;!
x:!
0L!
0K!
0J!
0I!
0H!
0G!
0F!
0E!
x6!
xZ!
xY!
xX!
xW!
xV!
xU!
xT!
xS!
xb!
xa!
x`!
x_!
x^!
x]!
x\!
x[!
0j!
0i!
1h!
1g!
0f!
0e!
1d!
1c!
1r!
1q!
0p!
0o!
1n!
1m!
0l!
0k!
1z!
0y!
1x!
0w!
0v!
0u!
0t!
0s!
$end
#10000
18!
#20000
08!
#30000
18!
#40000
08!
#50000
18!
#60000
08!
#70000
18!
#80000
08!
#90000
18!
#100000
08!
#110000
18!
#120000
08!
#130000
18!
#140000
08!
#150000
18!
#160000
08!
#170000
18!
#180000
08!
#190000
18!
#200000
08!
17!
#210000
18!
#220000
08!
#230000
18!
#240000
08!
#250000
18!
#260000
08!
#270000
18!
#280000
08!
#290000
18!
#300000
08!
#310000
18!
#320000
08!
#330000
18!
#340000
08!
#350000
18!
#360000
08!
#370000
18!
#380000
08!
#390000
18!
#400000
08!
0S
0[
1Z
0Y
1X
0W
1V
0U
1T
1c
0b
1a
0`
1_
0^
1]
0\
#410000
18!
#420000
08!
#430000
18!
#440000
08!
#450000
18!
#460000
08!
#470000
18!
#480000
08!
#490000
18!
#500000
08!
#510000
18!
#520000
08!
#530000
18!
#540000
08!
#550000
18!
#560000
08!
#570000
18!
#580000
08!
#590000
18!
#600000
08!
1S
1[
1Y
1W
0V
1U
1b
1^
0]
#610000
18!
1"!
0R!
#620000
08!
#630000
18!
#640000
08!
#650000
18!
#660000
08!
#670000
18!
#680000
08!
#690000
18!
#700000
08!
#710000
18!
#720000
08!
#730000
18!
#740000
08!
#750000
18!
#760000
08!
#770000
18!
#780000
08!
#790000
18!
19!
1A!
1@!
1?!
1>!
1=!
0<!
1;!
1:!
06!
#800000
08!
#810000
18!
0Q!
0O!
1P!
09!
1M!
#820000
08!
#830000
18!
1O!
16!
1Z!
#840000
08!
#850000
18!
0O!
#860000
08!
#870000
18!
1O!
1Y!
#880000
08!
#890000
18!
1Q!
0O!
#900000
08!
#910000
18!
1O!
1X!
#920000
08!
#930000
18!
0O!
#940000
08!
#950000
18!
1O!
1W!
#960000
08!
#970000
18!
0Q!
0O!
#980000
08!
#990000
18!
1O!
1V!
#1000000
08!
#1010000
18!
0O!
0P!
#1020000
08!
#1030000
18!
1O!
0U!
#1040000
08!
#1050000
18!
1Q!
0O!
1P!
#1060000
08!
#1070000
18!
1O!
1T!
#1080000
08!
#1090000
18!
0O!
#1100000
08!
#1110000
18!
1O!
0M!
1J!
1I!
1F!
1E!
1S!
#1120000
08!
#1130000
18!
1m
1l
1i
1h
#1140000
08!
#1150000
18!
#1160000
08!
#1170000
18!
19!
0>!
1<!
0;!
0:!
06!
#1180000
08!
#1190000
18!
0O!
09!
1M!
#1200000
08!
#1210000
18!
1O!
16!
1b!
#1220000
08!
#1230000
18!
0O!
#1240000
08!
#1250000
18!
1O!
1a!
#1260000
08!
#1270000
18!
0Q!
0O!
#1280000
08!
#1290000
18!
1O!
1`!
#1300000
08!
#1310000
18!
0O!
0P!
#1320000
08!
#1330000
18!
1O!
0_!
#1340000
08!
#1350000
18!
1Q!
0O!
1P!
#1360000
08!
#1370000
18!
1O!
1^!
#1380000
08!
#1390000
18!
0O!
#1400000
08!
#1410000
18!
1O!
1]!
#1420000
08!
#1430000
18!
0Q!
0O!
0P!
#1440000
08!
#1450000
18!
1O!
0\!
#1460000
08!
#1470000
18!
0O!
#1480000
08!
#1490000
18!
1O!
0M!
1L!
1K!
0J!
0I!
1H!
1G!
0F!
0E!
0[!
#1500000
08!
#1510000
18!
1w
1v
1s
1r
#1520000
08!
#1530000
18!
#1540000
08!
#1550000
18!
19!
0A!
0@!
0?!
0=!
0<!
06!
#1560000
08!
#1570000
18!
1Q!
0O!
09!
1M!
#1580000
08!
#1590000
18!
1O!
16!
#1600000
08!
#1610000
18!
0Q!
0O!
#1620000
08!
#1630000
18!
1O!
#1640000
08!
#1650000
18!
1Q!
0O!
#1660000
08!
#1670000
18!
1O!
#1680000
08!
#1690000
18!
0Q!
0O!
#1700000
08!
#1710000
18!
1O!
#1720000
08!
#1730000
18!
0O!
#1740000
08!
#1750000
18!
1O!
#1760000
08!
#1770000
18!
0O!
#1780000
08!
#1790000
18!
1O!
#1800000
08!
#1810000
18!
0O!
#1820000
08!
#1830000
18!
1O!
#1840000
08!
#1850000
18!
0O!
#1860000
08!
#1870000
18!
1O!
0M!
0K!
1J!
0H!
0G!
0h!
1e!
0r!
0q!
0n!
0m!
0z!
0x!
1w!
1u!
1t!
1s!
#1880000
08!
#1890000
18!
0"!
1!!
1}
1R!
#1900000
08!
#1910000
18!
1"!
0R!
#1920000
08!
#1930000
18!
#1940000
08!
#1950000
18!
#1960000
08!
#1970000
18!
#1980000
08!
#1990000
18!
#2000000
08!
#2010000
18!
#2020000
08!
#2030000
18!
#2040000
08!
#2050000
18!
#2060000
08!
#2070000
18!
#2080000
08!
#2090000
18!
19!
1A!
1@!
1?!
1>!
1=!
1;!
1:!
06!
#2100000
08!
#2110000
18!
0O!
1P!
09!
1M!
#2120000
08!
#2130000
18!
1O!
16!
#2140000
08!
#2150000
18!
0O!
#2160000
08!
#2170000
18!
1O!
#2180000
08!
#2190000
18!
0O!
#2200000
08!
#2210000
18!
1O!
#2220000
08!
#2230000
18!
1Q!
0O!
#2240000
08!
#2250000
18!
1O!
#2260000
08!
#2270000
18!
0Q!
0O!
#2280000
08!
#2290000
18!
1O!
#2300000
08!
#2310000
18!
1Q!
0O!
0P!
#2320000
08!
#2330000
18!
1O!
#2340000
08!
#2350000
18!
0O!
1P!
#2360000
08!
#2370000
18!
1O!
#2380000
08!
#2390000
18!
0O!
#2400000
08!
#2410000
18!
1O!
0M!
0L!
0J!
1I!
1G!
1F!
1E!
#2420000
08!
#2430000
18!
0m
1j
#2440000
08!
#2450000
18!
#2460000
08!
#2470000
18!
19!
0>!
1<!
0;!
0:!
06!
#2480000
08!
#2490000
18!
0Q!
0O!
09!
1M!
#2500000
08!
#2510000
18!
1O!
16!
#2520000
08!
#2530000
18!
0O!
#2540000
08!
#2550000
18!
1O!
#2560000
08!
#2570000
18!
0O!
#2580000
08!
#2590000
18!
1O!
#2600000
08!
#2610000
18!
0O!
0P!
#2620000
08!
#2630000
18!
1O!
#2640000
08!
#2650000
18!
0O!
1P!
#2660000
08!
#2670000
18!
1O!
#2680000
08!
#2690000
18!
0O!
#2700000
08!
#2710000
18!
1O!
#2720000
08!
#2730000
18!
0O!
0P!
#2740000
08!
#2750000
18!
1O!
#2760000
08!
#2770000
18!
0O!
#2780000
08!
#2790000
18!
1O!
0M!
0I!
0G!
0F!
0E!
#2800000
08!
#2810000
18!
0w
0v
0s
0r
#2820000
08!
#2830000
18!
#2840000
08!
#2850000
18!
19!
0A!
0@!
0?!
0=!
0<!
06!
#2860000
08!
#2870000
18!
0O!
09!
1M!
#2880000
08!
#2890000
18!
1O!
16!
#2900000
08!
#2910000
18!
0O!
#2920000
08!
#2930000
18!
1O!
#2940000
08!
#2950000
18!
0O!
#2960000
08!
#2970000
18!
1O!
#2980000
08!
#2990000
18!
1Q!
0O!
#3000000
08!
#3010000
18!
1O!
#3020000
08!
#3030000
18!
0Q!
0O!
#3040000
08!
#3050000
18!
1O!
#3060000
08!
#3070000
18!
1Q!
0O!
#3080000
08!
#3090000
18!
1O!
#3100000
08!
#3110000
18!
0O!
#3120000
08!
#3130000
18!
1O!
#3140000
08!
#3150000
18!
0O!
#3160000
08!
#3170000
18!
1O!
0M!
1I!
1G!
1F!
1E!
#3180000
08!
#3190000
18!
0"!
0!!
0}
1|
1z
1y
1x
1R!
#3200000
08!
#3210000
18!
1"!
0R!
#3220000
08!
#3230000
18!
#3240000
08!
#3250000
18!
#3260000
08!
#3270000
18!
#3280000
08!
#3290000
18!
#3300000
08!
#3310000
18!
#3320000
08!
#3330000
18!
#3340000
08!
#3350000
18!
#3360000
08!
#3370000
18!
#3380000
08!
#3390000
18!
19!
1A!
1@!
1?!
1>!
1=!
1;!
1:!
06!
#3400000
08!
#3410000
18!
0Q!
0O!
1P!
09!
1M!
#3420000
08!
#3430000
18!
1O!
16!
#3440000
08!
#3450000
18!
0O!
#3460000
08!
#3470000
18!
1O!
#3480000
08!
#3490000
18!
0O!
#3500000
08!
#3510000
18!
1O!
#3520000
08!
#3530000
18!
1Q!
0O!
#3540000
08!
#3550000
18!
1O!
#3560000
08!
#3570000
18!
0Q!
0O!
#3580000
08!
#3590000
18!
1O!
#3600000
08!
#3610000
18!
1Q!
0O!
0P!
#3620000
08!
#3630000
18!
1O!
#3640000
08!
#3650000
18!
0O!
1P!
#3660000
08!
#3670000
18!
1O!
#3680000
08!
#3690000
18!
0O!
#3700000
08!
#3710000
18!
1O!
0M!
#3720000
08!
#3730000
18!
#3740000
08!
#3750000
18!
#3760000
08!
#3770000
18!
19!
0>!
1<!
0;!
0:!
06!
#3780000
08!
#3790000
18!
0Q!
0O!
09!
1M!
#3800000
08!
#3810000
18!
1O!
16!
#3820000
08!
#3830000
18!
0O!
#3840000
08!
#3850000
18!
1O!
#3860000
08!
#3870000
18!
0O!
#3880000
08!
#3890000
18!
1O!
#3900000
08!
#3910000
18!
0O!
0P!
#3920000
08!
#3930000
18!
1O!
#3940000
08!
#3950000
18!
0O!
1P!
#3960000
08!
#3970000
18!
1O!
#3980000
08!
#3990000
18!
0O!
#4000000
08!
#4010000
18!
1O!
#4020000
08!
#4030000
18!
0O!
0P!
#4040000
08!
#4050000
18!
1O!
#4060000
08!
#4070000
18!
0O!
#4080000
08!
#4090000
18!
1O!
0M!
0I!
0G!
0F!
0E!
#4100000
08!
#4110000
18!
#4120000
08!
#4130000
18!
#4140000
08!
#4150000
18!
19!
0A!
0@!
0?!
0=!
0<!
06!
#4160000
08!
#4170000
18!
0O!
09!
1M!
#4180000
08!
#4190000
18!
1O!
16!
#4200000
08!
#4210000
18!
0O!
#4220000
08!
#4230000
18!
1O!
#4240000
08!
#4250000
18!
0O!
#4260000
08!
#4270000
18!
1O!
#4280000
08!
#4290000
18!
1Q!
0O!
#4300000
08!
#4310000
18!
1O!
#4320000
08!
#4330000
18!
0Q!
0O!
#4340000
08!
#4350000
18!
1O!
#4360000
08!
#4370000
18!
1Q!
0O!
#4380000
08!
#4390000
18!
1O!
#4400000
08!
#4410000
18!
0O!
#4420000
08!
#4430000
18!
1O!
#4440000
08!
#4450000
18!
0O!
#4460000
08!
#4470000
18!
1O!
0M!
1I!
1G!
1F!
1E!
#4480000
08!
#4490000
18!
0"!
1R!
#4500000
08!
#4510000
18!
1"!
0R!
#4520000
08!
#4530000
18!
#4540000
08!
#4550000
18!
#4560000
08!
#4570000
18!
#4580000
08!
#4590000
18!
#4600000
08!
#4610000
18!
#4620000
08!
#4630000
18!
#4640000
08!
#4650000
18!
#4660000
08!
#4670000
18!
#4680000
08!
#4690000
18!
19!
1A!
1@!
1?!
1>!
1=!
1;!
1:!
06!
#4700000
08!
#4710000
18!
0Q!
0O!
1P!
09!
1M!
#4720000
08!
#4730000
18!
1O!
16!
#4740000
08!
#4750000
18!
0O!
#4760000
08!
#4770000
18!
1O!
#4780000
08!
#4790000
18!
0O!
#4800000
08!
#4810000
18!
1O!
#4820000
08!
#4830000
18!
1Q!
0O!
#4840000
08!
#4850000
18!
1O!
#4860000
08!
#4870000
18!
0Q!
0O!
#4880000
08!
#4890000
18!
1O!
#4900000
08!
#4910000
18!
1Q!
0O!
0P!
#4920000
08!
#4930000
18!
1O!
#4940000
08!
#4950000
18!
0O!
1P!
#4960000
08!
#4970000
18!
1O!
#4980000
08!
#4990000
18!
0O!
#5000000
08!
#5010000
18!
1O!
0M!
#5020000
08!
#5030000
18!
#5040000
08!
#5050000
18!
#5060000
08!
#5070000
18!
19!
0>!
1<!
0;!
0:!
06!
#5080000
08!
#5090000
18!
0Q!
0O!
09!
1M!
#5100000
08!
#5110000
18!
1O!
16!
#5120000
08!
#5130000
18!
0O!
#5140000
08!
#5150000
18!
1O!
#5160000
08!
#5170000
18!
0O!
#5180000
08!
#5190000
18!
1O!
#5200000
08!
#5210000
18!
0O!
0P!
#5220000
08!
#5230000
18!
1O!
#5240000
08!
#5250000
18!
0O!
1P!
#5260000
08!
#5270000
18!
1O!
#5280000
08!
#5290000
18!
0O!
#5300000
08!
#5310000
18!
1O!
#5320000
08!
#5330000
18!
0O!
0P!
#5340000
08!
#5350000
18!
1O!
#5360000
08!
#5370000
18!
0O!
#5380000
08!
#5390000
18!
1O!
0M!
0I!
0G!
0F!
0E!
#5400000
08!
#5410000
18!
#5420000
08!
#5430000
18!
#5440000
08!
#5450000
18!
19!
0A!
0@!
0?!
0=!
0<!
06!
#5460000
08!
#5470000
18!
0O!
09!
1M!
#5480000
08!
#5490000
18!
1O!
16!
#5500000
08!
#5510000
18!
0O!
#5520000
08!
#5530000
18!
1O!
#5540000
08!
#5550000
18!
0O!
#5560000
08!
#5570000
18!
1O!
#5580000
08!
#5590000
18!
1Q!
0O!
#5600000
08!
#5610000
18!
1O!
#5620000
08!
#5630000
18!
0Q!
0O!
#5640000
08!
#5650000
18!
1O!
#5660000
08!
#5670000
18!
1Q!
0O!
#5680000
08!
#5690000
18!
1O!
#5700000
08!
#5710000
18!
0O!
#5720000
08!
#5730000
18!
1O!
#5740000
08!
#5750000
18!
0O!
#5760000
08!
#5770000
18!
1O!
0M!
1I!
1G!
1F!
1E!
#5780000
08!
#5790000
18!
0"!
1R!
#5800000
08!
#5810000
18!
1"!
0R!
#5820000
08!
#5830000
18!
#5840000
08!
#5850000
18!
#5860000
08!
#5870000
18!
#5880000
08!
#5890000
18!
#5900000
08!
#5910000
18!
#5920000
08!
#5930000
18!
#5940000
08!
#5950000
18!
#5960000
08!
#5970000
18!
#5980000
08!
#5990000
18!
19!
1A!
1@!
1?!
1>!
1=!
1;!
1:!
06!
#6000000
08!
#6010000
18!
0Q!
0O!
1P!
09!
1M!
#6020000
08!
#6030000
18!
1O!
16!
#6040000
08!
#6050000
18!
0O!
#6060000
08!
#6070000
18!
1O!
#6080000
08!
#6090000
18!
0O!
#6100000
08!
#6110000
18!
1O!
#6120000
08!
#6130000
18!
1Q!
0O!
#6140000
08!
#6150000
18!
1O!
#6160000
08!
#6170000
18!
0Q!
0O!
#6180000
08!
#6190000
18!
1O!
#6200000
08!
#6210000
18!
1Q!
0O!
0P!
#6220000
08!
#6230000
18!
1O!
#6240000
08!
#6250000
18!
0O!
1P!
#6260000
08!
#6270000
18!
1O!
#6280000
08!
#6290000
18!
0O!
#6300000
08!
#6310000
18!
1O!
0M!
#6320000
08!
#6330000
18!
#6340000
08!
#6350000
18!
#6360000
08!
#6370000
18!
19!
0>!
1<!
0;!
0:!
06!
#6380000
08!
#6390000
18!
0Q!
0O!
09!
1M!
#6400000
08!
#6410000
18!
1O!
16!
#6420000
08!
#6430000
18!
0O!
#6440000
08!
#6450000
18!
1O!
#6460000
08!
#6470000
18!
0O!
#6480000
08!
#6490000
18!
1O!
#6500000
08!
#6510000
18!
0O!
0P!
#6520000
08!
#6530000
18!
1O!
#6540000
08!
#6550000
18!
0O!
1P!
#6560000
08!
#6570000
18!
1O!
#6580000
08!
#6590000
18!
0O!
#6600000
08!
#6610000
18!
1O!
#6620000
08!
#6630000
18!
0O!
0P!
#6640000
08!
#6650000
18!
1O!
#6660000
08!
#6670000
18!
0O!
#6680000
08!
#6690000
18!
1O!
0M!
0I!
0G!
0F!
0E!
#6700000
08!
#6710000
18!
#6720000
08!
#6730000
18!
#6740000
08!
#6750000
18!
19!
0A!
0@!
0?!
0=!
0<!
06!
#6760000
08!
#6770000
18!
0O!
09!
1M!
#6780000
08!
#6790000
18!
1O!
16!
#6800000
08!
#6810000
18!
0O!
#6820000
08!
#6830000
18!
1O!
#6840000
08!
#6850000
18!
0O!
#6860000
08!
#6870000
18!
1O!
#6880000
08!
#6890000
18!
1Q!
0O!
#6900000
08!
#6910000
18!
1O!
#6920000
08!
#6930000
18!
0Q!
0O!
#6940000
08!
#6950000
18!
1O!
#6960000
08!
#6970000
18!
1Q!
0O!
#6980000
08!
#6990000
18!
1O!
#7000000
08!
#7010000
18!
0O!
#7020000
08!
#7030000
18!
1O!
#7040000
08!
#7050000
18!
0O!
#7060000
08!
#7070000
18!
1O!
0M!
1I!
1G!
1F!
1E!
#7080000
08!
#7090000
18!
0"!
1R!
#7100000
08!
#7110000
18!
1"!
0R!
#7120000
08!
#7130000
18!
#7140000
08!
#7150000
18!
#7160000
08!
#7170000
18!
#7180000
08!
#7190000
18!
#7200000
08!
#7210000
18!
#7220000
08!
#7230000
18!
#7240000
08!
#7250000
18!
#7260000
08!
#7270000
18!
#7280000
08!
#7290000
18!
19!
1A!
1@!
1?!
1>!
1=!
1;!
1:!
06!
#7300000
08!
#7310000
18!
0Q!
0O!
1P!
09!
1M!
#7320000
08!
#7330000
18!
1O!
16!
#7340000
08!
#7350000
18!
0O!
#7360000
08!
#7370000
18!
1O!
#7380000
08!
#7390000
18!
0O!
#7400000
08!
#7410000
18!
1O!
#7420000
08!
#7430000
18!
1Q!
0O!
#7440000
08!
#7450000
18!
1O!
#7460000
08!
#7470000
18!
0Q!
0O!
#7480000
08!
#7490000
18!
1O!
#7500000
08!
#7510000
18!
1Q!
0O!
0P!
#7520000
08!
#7530000
18!
1O!
#7540000
08!
#7550000
18!
0O!
1P!
#7560000
08!
#7570000
18!
1O!
#7580000
08!
#7590000
18!
0O!
#7600000
08!
#7610000
18!
1O!
0M!
#7620000
08!
#7630000
18!
#7640000
08!
#7650000
18!
#7660000
08!
#7670000
18!
19!
0>!
1<!
0;!
0:!
06!
#7680000
08!
#7690000
18!
0Q!
0O!
09!
1M!
#7700000
08!
#7710000
18!
1O!
16!
#7720000
08!
#7730000
18!
0O!
#7740000
08!
#7750000
18!
1O!
#7760000
08!
#7770000
18!
0O!
#7780000
08!
#7790000
18!
1O!
#7800000
08!
#7810000
18!
0O!
0P!
#7820000
08!
#7830000
18!
1O!
#7840000
08!
#7850000
18!
0O!
1P!
#7860000
08!
#7870000
18!
1O!
#7880000
08!
#7890000
18!
0O!
#7900000
08!
#7910000
18!
1O!
#7920000
08!
#7930000
18!
0O!
0P!
#7940000
08!
#7950000
18!
1O!
#7960000
08!
#7970000
18!
0O!
#7980000
08!
#7990000
18!
1O!
0M!
0I!
0G!
0F!
0E!
#8000000
08!
#8010000
18!
#8020000
08!
#8030000
18!
#8040000
08!
#8050000
18!
19!
0A!
0@!
0?!
0=!
0<!
06!
#8060000
08!
#8070000
18!
0O!
09!
1M!
#8080000
08!
#8090000
18!
1O!
16!
#8100000
08!
#8110000
18!
0O!
#8120000
08!
#8130000
18!
1O!
#8140000
08!
#8150000
18!
0O!
#8160000
08!
#8170000
18!
1O!
#8180000
08!
#8190000
18!
1Q!
0O!
#8200000
08!
#8210000
18!
1O!
#8220000
08!
#8230000
18!
0Q!
0O!
#8240000
08!
#8250000
18!
1O!
#8260000
08!
#8270000
18!
1Q!
0O!
#8280000
08!
#8290000
18!
1O!
#8300000
08!
#8310000
18!
0O!
#8320000
08!
#8330000
18!
1O!
#8340000
08!
#8350000
18!
0O!
#8360000
08!
#8370000
18!
1O!
0M!
1I!
1G!
1F!
1E!
#8380000
08!
#8390000
18!
0"!
1R!
#8400000
08!
#8410000
18!
1"!
0R!
#8420000
08!
#8430000
18!
#8440000
08!
#8450000
18!
#8460000
08!
#8470000
18!
#8480000
08!
#8490000
18!
#8500000
08!
#8510000
18!
#8520000
08!
#8530000
18!
#8540000
08!
#8550000
18!
#8560000
08!
#8570000
18!
#8580000
08!
#8590000
18!
19!
1A!
1@!
1?!
1>!
1=!
1;!
1:!
06!
#8600000
08!
#8610000
18!
0Q!
0O!
1P!
09!
1M!
#8620000
08!
#8630000
18!
1O!
16!
#8640000
08!
#8650000
18!
0O!
#8660000
08!
#8670000
18!
1O!
#8680000
08!
#8690000
18!
0O!
#8700000
08!
#8710000
18!
1O!
#8720000
08!
#8730000
18!
1Q!
0O!
#8740000
08!
#8750000
18!
1O!
#8760000
08!
#8770000
18!
0Q!
0O!
#8780000
08!
#8790000
18!
1O!
#8800000
08!
#8810000
18!
1Q!
0O!
0P!
#8820000
08!
#8830000
18!
1O!
#8840000
08!
#8850000
18!
0O!
1P!
#8860000
08!
#8870000
18!
1O!
#8880000
08!
#8890000
18!
0O!
#8900000
08!
#8910000
18!
1O!
0M!
#8920000
08!
#8930000
18!
#8940000
08!
#8950000
18!
#8960000
08!
#8970000
18!
19!
0>!
1<!
0;!
0:!
06!
#8980000
08!
#8990000
18!
0Q!
0O!
09!
1M!
#9000000
08!
#9010000
18!
1O!
16!
#9020000
08!
#9030000
18!
0O!
#9040000
08!
#9050000
18!
1O!
#9060000
08!
#9070000
18!
0O!
#9080000
08!
#9090000
18!
1O!
#9100000
08!
#9110000
18!
0O!
0P!
#9120000
08!
#9130000
18!
1O!
#9140000
08!
#9150000
18!
0O!
1P!
#9160000
08!
#9170000
18!
1O!
#9180000
08!
#9190000
18!
0O!
#9200000
08!
#9210000
18!
1O!
#9220000
08!
#9230000
18!
0O!
0P!
#9240000
08!
#9250000
18!
1O!
#9260000
08!
#9270000
18!
0O!
#9280000
08!
#9290000
18!
1O!
0M!
0I!
0G!
0F!
0E!
#9300000
08!
#9310000
18!
#9320000
08!
#9330000
18!
#9340000
08!
#9350000
18!
19!
0A!
0@!
0?!
0=!
0<!
06!
#9360000
08!
#9370000
18!
0O!
09!
1M!
#9380000
08!
#9390000
18!
1O!
16!
#9400000
08!
#9410000
18!
0O!
#9420000
08!
#9430000
18!
1O!
#9440000
08!
#9450000
18!
0O!
#9460000
08!
#9470000
18!
1O!
#9480000
08!
#9490000
18!
1Q!
0O!
#9500000
08!
#9510000
18!
1O!
#9520000
08!
#9530000
18!
0Q!
0O!
#9540000
08!
#9550000
18!
1O!
#9560000
08!
#9570000
18!
1Q!
0O!
#9580000
08!
#9590000
18!
1O!
#9600000
08!
#9610000
18!
0O!
#9620000
08!
#9630000
18!
1O!
#9640000
08!
#9650000
18!
0O!
#9660000
08!
#9670000
18!
1O!
0M!
1I!
1G!
1F!
1E!
#9680000
08!
#9690000
18!
0"!
1R!
#9700000
08!
#9710000
18!
1"!
0R!
#9720000
08!
#9730000
18!
#9740000
08!
#9750000
18!
#9760000
08!
#9770000
18!
#9780000
08!
#9790000
18!
#9800000
08!
#9810000
18!
#9820000
08!
#9830000
18!
#9840000
08!
#9850000
18!
#9860000
08!
#9870000
18!
#9880000
08!
#9890000
18!
19!
1A!
1@!
1?!
1>!
1=!
1;!
1:!
06!
#9900000
08!
#9910000
18!
0Q!
0O!
1P!
09!
1M!
#9920000
08!
#9930000
18!
1O!
16!
